\relax 
\providecommand\hyper@newdestlabel[2]{}
\providecommand\babel@aux[2]{}
\@nameuse{bbl@beforestart}
\providecommand\HyperFirstAtBeginDocument{\AtBeginDocument}
\HyperFirstAtBeginDocument{\ifx\hyper@anchor\@undefined
\global\let\oldcontentsline\contentsline
\gdef\contentsline#1#2#3#4{\oldcontentsline{#1}{#2}{#3}}
\global\let\oldnewlabel\newlabel
\gdef\newlabel#1#2{\newlabelxx{#1}#2}
\gdef\newlabelxx#1#2#3#4#5#6{\oldnewlabel{#1}{{#2}{#3}}}
\AtEndDocument{\ifx\hyper@anchor\@undefined
\let\contentsline\oldcontentsline
\let\newlabel\oldnewlabel
\fi}
\fi}
\global\let\hyper@last\relax 
\gdef\HyperFirstAtBeginDocument#1{#1}
\providecommand*\HyPL@Entry[1]{}
\HyPL@Entry{0<</S/D>>}
\babel@aux{french}{}
\HyPL@Entry{2<</S/r>>}
\HyPL@Entry{4<</S/D>>}
\newlabel{index::doc}{{}{1}{}{section*.2}{}}
\@writefile{toc}{\contentsline {chapter}{\numberline {1}Projet}{3}{chapter.1}\protected@file@percent }
\@writefile{lof}{\addvspace {10\p@ }}
\@writefile{lot}{\addvspace {10\p@ }}
\newlabel{index:projet}{{1}{3}{Projet}{chapter.1}{}}
\@writefile{toc}{\contentsline {section}{\numberline {1.1}Le Matériel de départ}{3}{section.1.1}\protected@file@percent }
\newlabel{index:le-materiel-de-depart}{{1.1}{3}{Le Matériel de départ}{section.1.1}{}}
\@writefile{toc}{\contentsline {section}{\numberline {1.2}Les améliorations électroniques}{7}{section.1.2}\protected@file@percent }
\newlabel{index:les-ameliorations-electroniques}{{1.2}{7}{Les améliorations électroniques}{section.1.2}{}}
\@writefile{toc}{\contentsline {chapter}{\numberline {2}La réalisation}{11}{chapter.2}\protected@file@percent }
\@writefile{lof}{\addvspace {10\p@ }}
\@writefile{lot}{\addvspace {10\p@ }}
\newlabel{index:la-realisation}{{2}{11}{La réalisation}{chapter.2}{}}
\@writefile{toc}{\contentsline {section}{\numberline {2.1}Les tests}{11}{section.2.1}\protected@file@percent }
\newlabel{index:les-tests}{{2.1}{11}{Les tests}{section.2.1}{}}
\@writefile{toc}{\contentsline {section}{\numberline {2.2}L’électronique}{14}{section.2.2}\protected@file@percent }
\newlabel{index:l-electronique}{{2.2}{14}{L’électronique}{section.2.2}{}}
\@writefile{toc}{\contentsline {section}{\numberline {2.3}Le montage}{15}{section.2.3}\protected@file@percent }
\newlabel{index:le-montage}{{2.3}{15}{Le montage}{section.2.3}{}}
\@writefile{toc}{\contentsline {section}{\numberline {2.4}Le programme}{21}{section.2.4}\protected@file@percent }
\newlabel{index:le-programme}{{2.4}{21}{Le programme}{section.2.4}{}}
\@writefile{toc}{\contentsline {section}{\numberline {2.5}Améliorations possibles}{49}{section.2.5}\protected@file@percent }
\newlabel{index:ameliorations-possibles}{{2.5}{49}{Améliorations possibles}{section.2.5}{}}
\@writefile{toc}{\contentsline {section}{\numberline {2.6}Le résultat final}{49}{section.2.6}\protected@file@percent }
\newlabel{index:le-resultat-final}{{2.6}{49}{Le résultat final}{section.2.6}{}}
\gdef \@abspage@last{53}
